% Generated by IEEEtranS.bst, version: 1.13 (2008/09/30)
\begin{thebibliography}{1}
\providecommand{\url}[1]{#1}
\csname url@samestyle\endcsname
\providecommand{\newblock}{\relax}
\providecommand{\bibinfo}[2]{#2}
\providecommand{\BIBentrySTDinterwordspacing}{\spaceskip=0pt\relax}
\providecommand{\BIBentryALTinterwordstretchfactor}{4}
\providecommand{\BIBentryALTinterwordspacing}{\spaceskip=\fontdimen2\font plus
\BIBentryALTinterwordstretchfactor\fontdimen3\font minus
  \fontdimen4\font\relax}
\providecommand{\BIBforeignlanguage}[2]{{%
\expandafter\ifx\csname l@#1\endcsname\relax
\typeout{** WARNING: IEEEtranS.bst: No hyphenation pattern has been}%
\typeout{** loaded for the language `#1'. Using the pattern for}%
\typeout{** the default language instead.}%
\else
\language=\csname l@#1\endcsname
\fi
#2}}
\providecommand{\BIBdecl}{\relax}
\BIBdecl

\bibitem{Acken:1996:PCB:252493.252605}
K.~Acken, M.~Irwin, and R.~Owens, ``{Power Comparisons for Barrel Shifters},''
  in \emph{Proceedings of the 1996 International Symposium on Low Power
  Electronics and Design}, ser. ISLPED '96, 1996, pp. 209--212.

\bibitem{DES-bitslice}
E.~Biham, ``{A fast new DES implementation in software},'' in \emph{Fast
  Software Encryption}, ser. Lecture Notes in Computer Science, E.~Biham,
  Ed.\hskip 1em plus 0.5em minus 0.4em\relax Springer Berlin Heidelberg, 1997,
  vol. 1267, pp. 260--272.

\bibitem{opac-b1130488}
M.~D. Ercegovac and T.~Lang, \emph{{Digital Arithmetic}}.\hskip 1em plus 0.5em
  minus 0.4em\relax San Francisco (Calif.): Morgan Kaufmann Oxford, 2004.

\bibitem{DBLP:conf/asplos/EsmaeilzadehSCB12}
H.~Esmaeilzadeh, A.~Sampson, L.~Ceze, and D.~Burger, ``{Architecture support
  for disciplined approximate programming},'' in \emph{Proceedings of the 17th
  International Conference on Architectural Support for Programming Languages
  and Operating Systems, {ASPLOS} 2012, London, UK, March 3-7, 2012}, 2012.

\bibitem{DBLP:conf/lcpc/FisherD98}
R.~J. Fisher and H.~G. Dietz, ``{Compiling for SIMD Within a Register},'' in
  \emph{11th International Languages and Compilers for Parallel Computing
  Workshop (LCPC'08)}, 1998.

\bibitem{MullerEtAl2010}
J.-M. Muller, N.~Brisebarre, F.~de~Dinechin, C.-P. Jeannerod, V.~Lef{\`e}vre,
  G.~Melquiond, N.~Revol, D.~Stehl{\'e}, and S.~Torres, \emph{{Handbook of
  Floating-Point Arithmetic}}.\hskip 1em plus 0.5em minus 0.4em\relax
  {B}irkh\"auser {B}oston, 2010.

\bibitem{Pillai:1997:EDM:263272.263341}
R.~V.~K. Pillai, D.~Al-Khalili, and A.~J. Al-Khalili, ``{Energy Delay Measures
  of Barrel Switch Architectures for Pre-alignment of Floating Point Operands
  for Addition},'' in \emph{Proceedings of the 1997 International Symposium on
  Low Power Electronics and Design}, ser. ISLPED '97, 1997, pp. 235--238.

\bibitem{Tong:2000:RPO:340730.340741}
J.~Y.~F. Tong, D.~Nagle, and R.~A. Rutenbar, ``{Reducing Power by Optimizing
  the Necessary Precision/Range of Floating-point Arithmetic},'' \emph{IEEE
  Trans. Very Large Scale Integr. Syst.}, vol.~8, no.~3, pp. 273--285, Jun.
  2000.

\end{thebibliography}
